projeto-Quartus/simulation/qsim/sistemaDeControle.msim.vcd
$comment
	File created using the following command:
		vcd file sistemaDeControle.msim.vcd -direction
$end
$date
	Thu Dec  3 21:19:30 2020
$end
$version
	ModelSim Version 2020.1
$end
$timescale
	1ps
$end

$scope module sistemaDeControle_vlg_vec_tst $end
$var reg 4 ! KEY [3:0] $end
$var reg 10 " SW [9:0] $end
$var wire 1 # debug [1] $end
$var wire 1 $ debug [0] $end

$scope module i1 $end
$var wire 1 % gnd $end
$var wire 1 & vcc $end
$var wire 1 ' unknown $end
$var tri1 1 ( devclrn $end
$var tri1 1 ) devpor $end
$var tri1 1 * devoe $end
$var wire 1 + SW[0]~input_o $end
$var wire 1 , SW[1]~input_o $end
$var wire 1 - SW[2]~input_o $end
$var wire 1 . SW[3]~input_o $end
$var wire 1 / SW[4]~input_o $end
$var wire 1 0 SW[5]~input_o $end
$var wire 1 1 SW[6]~input_o $end
$var wire 1 2 SW[7]~input_o $end
$var wire 1 3 KEY[0]~input_o $end
$var wire 1 4 KEY[1]~input_o $end
$var wire 1 5 KEY[2]~input_o $end
$var wire 1 6 ~QUARTUS_CREATED_GND~I_combout $end
$var wire 1 7 KEY[3]~input_o $end
$var wire 1 8 KEY[3]~inputCLKENA0_outclk $end
$var wire 1 9 SW[8]~input_o $end
$var wire 1 : u0|debug[0]~0_combout $end
$var wire 1 ; SW[9]~input_o $end
$var wire 1 < u0|debug[1]~1_combout $end
$var wire 1 = u0|debug [1] $end
$var wire 1 > u0|debug [0] $end
$upscope $end
$upscope $end
$enddefinitions $end
#0
$dumpvars
b0xxx !
b0 "
0$
0#
0%
1&
x'
1(
1)
1*
0+
0,
0-
0.
0/
00
01
02
x3
x4
x5
06
07
08
09
1:
0;
1<
0>
0=
$end
#5000
b1xxx !
17
18
#10000
b100000000 "
b0xxx !
07
19
08
0:
1>
1=
1#
1$
#15000
b1xxx !
17
18
#20000
b1100000000 "
b1000000000 "
b0xxx !
07
09
1;
08
0<
1:
0>
0$
#25000
b1xxx !
17
18
#30000
b1100000000 "
b0xxx !
07
19
08
0:
1>
0=
0#
1$
#35000
b1xxx !
17
18
#40000
b100000000 "
b0 "
b0xxx !
07
09
0;
08
1<
1:
0>
0$
#45000
b1xxx !
17
18
#50000
b100000000 "
b0xxx !
07
19
08
0:
1>
1=
1#
1$
#55000
b1xxx !
17
18
#60000
b1100000000 "
b1000000000 "
b0xxx !
07
09
1;
08
0<
1:
0>
0$
#65000
b1xxx !
17
18
#70000
b1100000000 "
b0xxx !
07
19
08
0:
1>
0=
0#
1$
#75000
b1xxx !
17
18
#80000
b100000000 "
b0 "
b0xxx !
07
09
0;
08
1<
1:
0>
0$
#85000
b1xxx !
17
18
#90000
b100000000 "
b0xxx !
07
19
08
0:
1>
1=
1#
1$
#95000
b1xxx !
17
18
#100000
b1100000000 "
b1000000000 "
b0xxx !
07
09
1;
08
0<
1:
0>
0$
#105000
b1xxx !
17
18
#110000
b1100000000 "
b0xxx !
07
19
08
0:
1>
0=
0#
1$
#115000
b1xxx !
17
18
#120000
b100000000 "
b0 "
b0xxx !
07
09
0;
08
1<
1:
0>
0$
#125000
b1xxx !
17
18
#130000
b100000000 "
b0xxx !
07
19
08
0:
1>
1=
1#
1$
#135000
b1xxx !
17
18
#140000
b1100000000 "
b1000000000 "
b0xxx !
07
09
1;
08
0<
1:
0>
0$
#145000
b1xxx !
17
18
#150000
b1100000000 "
b0xxx !
07
19
08
0:
1>
0=
0#
1$
#155000
b1xxx !
17
18
#160000
b100000000 "
b0 "
b0xxx !
07
09
0;
08
1<
1:
0>
0$
#165000
b1xxx !
17
18
#170000
b100000000 "
b0xxx !
07
19
08
0:
1>
1=
1#
1$
#175000
b1xxx !
17
18
#180000
b1100000000 "
b1000000000 "
b0xxx !
07
09
1;
08
0<
1:
0>
0$
#185000
b1xxx !
17
18
#190000
b1100000000 "
b0xxx !
07
19
08
0:
1>
0=
0#
1$
#195000
b1xxx !
17
18
#200000
b100000000 "
b0 "
b0xxx !
07
09
0;
08
1<
1:
0>
0$
#205000
b1xxx !
17
18
#210000
b100000000 "
b0xxx !
07
19
08
0:
1>
1=
1#
1$
#215000
b1xxx !
17
18
#220000
b1100000000 "
b1000000000 "
b0xxx !
07
09
1;
08
0<
1:
0>
0$
#225000
b1xxx !
17
18
#230000
b1100000000 "
b0xxx !
07
19
08
0:
1>
0=
0#
1$
#235000
b1xxx !
17
18
#240000
b100000000 "
b0 "
b0xxx !
07
09
0;
08
1<
1:
0>
0$
#245000
b1xxx !
17
18
#250000
b100000000 "
b0xxx !
07
19
08
0:
1>
1=
1#
1$
#255000
b1xxx !
17
18
#260000
b1100000000 "
b1000000000 "
b0xxx !
07
09
1;
08
0<
1:
0>
0$
#265000
b1xxx !
17
18
#270000
b1100000000 "
b0xxx !
07
19
08
0:
1>
0=
0#
1$
#275000
b1xxx !
17
18
#280000
b100000000 "
b0 "
b0xxx !
07
09
0;
08
1<
1:
0>
0$
#285000
b1xxx !
17
18
#290000
b100000000 "
b0xxx !
07
19
08
0:
1>
1=
1#
1$
#295000
b1xxx !
17
18
#300000
b1100000000 "
b1000000000 "
b0xxx !
07
09
1;
08
0<
1:
0>
0$
#305000
b1xxx !
17
18
#310000
b1100000000 "
b0xxx !
07
19
08
0:
1>
0=
0#
1$
#315000
b1xxx !
17
18
#320000
b100000000 "
b0 "
b0xxx !
07
09
0;
08
1<
1:
0>
0$
#325000
b1xxx !
17
18
#330000
b100000000 "
b0xxx !
07
19
08
0:
1>
1=
1#
1$
#335000
b1xxx !
17
18
#340000
b1100000000 "
b1000000000 "
b0xxx !
07
09
1;
08
0<
1:
0>
0$
#345000
b1xxx !
17
18
#350000
b1100000000 "
b0xxx !
07
19
08
0:
1>
0=
0#
1$
#355000
b1xxx !
17
18
#360000
b100000000 "
b0 "
b0xxx !
07
09
0;
08
1<
1:
0>
0$
#365000
b1xxx !
17
18
#370000
b100000000 "
b0xxx !
07
19
08
0:
1>
1=
1#
1$
#375000
b1xxx !
17
18
#380000
b1100000000 "
b1000000000 "
b0xxx !
07
09
1;
08
0<
1:
0>
0$
#385000
b1xxx !
17
18
#390000
b1100000000 "
b0xxx !
07
19
08
0:
1>
0=
0#
1$
#395000
b1xxx !
17
18
#400000
b100000000 "
b0 "
b0xxx !
07
09
0;
08
1<
1:
0>
0$
#405000
b1xxx !
17
18
#410000
b100000000 "
b0xxx !
07
19
08
0:
1>
1=
1#
1$
#415000
b1xxx !
17
18
#420000
b1100000000 "
b1000000000 "
b0xxx !
07
09
1;
08
0<
1:
0>
0$
#425000
b1xxx !
17
18
#430000
b1100000000 "
b0xxx !
07
19
08
0:
1>
0=
0#
1$
#435000
b1xxx !
17
18
#440000
b100000000 "
b0 "
b0xxx !
07
09
0;
08
1<
1:
0>
0$
#445000
b1xxx !
17
18
#450000
b100000000 "
b0xxx !
07
19
08
0:
1>
1=
1#
1$
#455000
b1xxx !
17
18
#460000
b1100000000 "
b1000000000 "
b0xxx !
07
09
1;
08
0<
1:
0>
0$
#465000
b1xxx !
17
18
#470000
b1100000000 "
b0xxx !
07
19
08
0:
1>
0=
0#
1$
#475000
b1xxx !
17
18
#480000
b100000000 "
b0 "
b0xxx !
07
09
0;
08
1<
1:
0>
0$
#485000
b1xxx !
17
18
#490000
b100000000 "
b0xxx !
07
19
08
0:
1>
1=
1#
1$
#495000
b1xxx !
17
18
#500000
b1100000000 "
b1000000000 "
b0xxx !
07
09
1;
08
0<
1:
0>
0$
#505000
b1xxx !
17
18
#510000
b1100000000 "
b0xxx !
07
19
08
0:
1>
0=
0#
1$
#515000
b1xxx !
17
18
#520000
b100000000 "
b0 "
b0xxx !
07
09
0;
08
1<
1:
0>
0$
#525000
b1xxx !
17
18
#530000
b100000000 "
b0xxx !
07
19
08
0:
1>
1=
1#
1$
#535000
b1xxx !
17
18
#540000
b1100000000 "
b1000000000 "
b0xxx !
07
09
1;
08
0<
1:
0>
0$
#545000
b1xxx !
17
18
#550000
b1100000000 "
b0xxx !
07
19
08
0:
1>
0=
0#
1$
#555000
b1xxx !
17
18
#560000
b100000000 "
b0 "
b0xxx !
07
09
0;
08
1<
1:
0>
0$
#565000
b1xxx !
17
18
#570000
b100000000 "
b0xxx !
07
19
08
0:
1>
1=
1#
1$
#575000
b1xxx !
17
18
#580000
b1100000000 "
b1000000000 "
b0xxx !
07
09
1;
08
0<
1:
0>
0$
#585000
b1xxx !
17
18
#590000
b1100000000 "
b0xxx !
07
19
08
0:
1>
0=
0#
1$
#595000
b1xxx !
17
18
#600000
b100000000 "
b0 "
b0xxx !
07
09
0;
08
1<
1:
0>
0$
#605000
b1xxx !
17
18
#610000
b100000000 "
b0xxx !
07
19
08
0:
1>
1=
1#
1$
#615000
b1xxx !
17
18
#620000
b1100000000 "
b1000000000 "
b0xxx !
07
09
1;
08
0<
1:
0>
0$
#625000
b1xxx !
17
18
#630000
b1100000000 "
b0xxx !
07
19
08
0:
1>
0=
0#
1$
#635000
b1xxx !
17
18
#640000
b100000000 "
b0 "
b0xxx !
07
09
0;
08
1<
1:
0>
0$
#645000
b1xxx !
17
18
#650000
b100000000 "
b0xxx !
07
19
08
0:
1>
1=
1#
1$
#655000
b1xxx !
17
18
#660000
b1100000000 "
b1000000000 "
b0xxx !
07
09
1;
08
0<
1:
0>
0$
#665000
b1xxx !
17
18
#670000
b1100000000 "
b0xxx !
07
19
08
0:
1>
0=
0#
1$
#675000
b1xxx !
17
18
#680000
b100000000 "
b0 "
b0xxx !
07
09
0;
08
1<
1:
0>
0$
#685000
b1xxx !
17
18
#690000
b100000000 "
b0xxx !
07
19
08
0:
1>
1=
1#
1$
#695000
b1xxx !
17
18
#700000
b1100000000 "
b1000000000 "
b0xxx !
07
09
1;
08
0<
1:
0>
0$
#705000
b1xxx !
17
18
#710000
b1100000000 "
b0xxx !
07
19
08
0:
1>
0=
0#
1$
#715000
b1xxx !
17
18
#720000
b100000000 "
b0 "
b0xxx !
07
09
0;
08
1<
1:
0>
0$
#725000
b1xxx !
17
18
#730000
b100000000 "
b0xxx !
07
19
08
0:
1>
1=
1#
1$
#735000
b1xxx !
17
18
#740000
b1100000000 "
b1000000000 "
b0xxx !
07
09
1;
08
0<
1:
0>
0$
#745000
b1xxx !
17
18
#750000
b1100000000 "
b0xxx !
07
19
08
0:
1>
0=
0#
1$
#755000
b1xxx !
17
18
#760000
b100000000 "
b0 "
b0xxx !
07
09
0;
08
1<
1:
0>
0$
#765000
b1xxx !
17
18
#770000
b100000000 "
b0xxx !
07
19
08
0:
1>
1=
1#
1$
#775000
b1xxx !
17
18
#780000
b1100000000 "
b1000000000 "
b0xxx !
07
09
1;
08
0<
1:
0>
0$
#785000
b1xxx !
17
18
#790000
b1100000000 "
b0xxx !
07
19
08
0:
1>
0=
0#
1$
#795000
b1xxx !
17
18
#800000
b100000000 "
b0 "
b0xxx !
07
09
0;
08
1<
1:
0>
0$
#805000
b1xxx !
17
18
#810000
b100000000 "
b0xxx !
07
19
08
0:
1>
1=
1#
1$
#815000
b1xxx !
17
18
#820000
b1100000000 "
b1000000000 "
b0xxx !
07
09
1;
08
0<
1:
0>
0$
#825000
b1xxx !
17
18
#830000
b1100000000 "
b0xxx !
07
19
08
0:
1>
0=
0#
1$
#835000
b1xxx !
17
18
#840000
b100000000 "
b0 "
b0xxx !
07
09
0;
08
1<
1:
0>
0$
#845000
b1xxx !
17
18
#850000
b100000000 "
b0xxx !
07
19
08
0:
1>
1=
1#
1$
#855000
b1xxx !
17
18
#860000
b1100000000 "
b1000000000 "
b0xxx !
07
09
1;
08
0<
1:
0>
0$
#865000
b1xxx !
17
18
#870000
b1100000000 "
b0xxx !
07
19
08
0:
1>
0=
0#
1$
#875000
b1xxx !
17
18
#880000
b100000000 "
b0 "
b0xxx !
07
09
0;
08
1<
1:
0>
0$
#885000
b1xxx !
17
18
#890000
b100000000 "
b0xxx !
07
19
08
0:
1>
1=
1#
1$
#895000
b1xxx !
17
18
#900000
b1100000000 "
b1000000000 "
b0xxx !
07
09
1;
08
0<
1:
0>
0$
#905000
b1xxx !
17
18
#910000
b1100000000 "
b0xxx !
07
19
08
0:
1>
0=
0#
1$
#915000
b1xxx !
17
18
#920000
b100000000 "
b0 "
b0xxx !
07
09
0;
08
1<
1:
0>
0$
#925000
b1xxx !
17
18
#930000
b100000000 "
b0xxx !
07
19
08
0:
1>
1=
1#
1$
#935000
b1xxx !
17
18
#940000
b1100000000 "
b1000000000 "
b0xxx !
07
09
1;
08
0<
1:
0>
0$
#945000
b1xxx !
17
18
#950000
b1100000000 "
b0xxx !
07
19
08
0:
1>
0=
0#
1$
#955000
b1xxx !
17
18
#960000
b100000000 "
b0 "
b0xxx !
07
09
0;
08
1<
1:
0>
0$
#965000
b1xxx !
17
18
#970000
b100000000 "
b0xxx !
07
19
08
0:
1>
1=
1#
1$
#975000
b1xxx !
17
18
#980000
b1100000000 "
b1000000000 "
b0xxx !
07
09
1;
08
0<
1:
0>
0$
#985000
b1xxx !
17
18
#990000
b1100000000 "
b0xxx !
07
19
08
0:
1>
0=
0#
1$
#995000
b1xxx !
17
18
